{
  "nodes": [
    {
      "BACnetID": "1cd0f7164cdaf66a",
      "id": 0,
      "name": "pascal",
      "gender": "female",
      "birthday": "1998-11-26",
      "country": "Schweiz",
      "town": "Zuerich",
      "language": "Englisch",
      "status": null,
      "status_list": [],
      "activity level": 3,
      "influencer": true,
      "hopLayer": 1,
      "profile_pic": null
    },
    {
      "BACnetID": "4368d2a3063acc76",
      "id": 1,
      "name": "veri",
      "gender": "other",
      "birthday": "1995-07-13",
      "country": "Schweiz",
      "town": "Basel",
      "language": "Deutsch",
      "status": null,
      "status_list": [],
      "activity level": 1,
      "influencer": false,
      "hopLayer": 10000,
      "profile_pic": null
    },
    {
      "BACnetID": "7178739b672801fe",
      "id": 2,
      "name": "aline",
      "gender": "female",
      "birthday": "1998-11-26",
      "country": "Schweiz",
      "town": "Bern",
      "language": "Englisch",
      "status": null,
      "status_list": [],
      "activity level": 3,
      "influencer": false,
      "hopLayer": 2,
      "profile_pic": null
    },
    {
      "BACnetID": "691fb604f3a3ac34",
      "id": 3,
      "name": "caroline",
      "gender": "male",
      "birthday": "1999-06-01",
      "country": "Schweiz",
      "town": "Basel",
      "language": "Deutsch",
      "status": null,
      "status_list": [],
      "activity level": 1,
      "influencer": false,
      "hopLayer": 10000,
      "profile_pic": null
    },
    {
      "BACnetID": "92b6945620f8df6b",
      "id": 4,
      "name": "vera",
      "gender": "female",
      "birthday": "1995-07-13",
      "country": "Schweiz",
      "town": "Basel",
      "language": "Franzoesisch",
      "status": "Let's go my Geeeees",
      "status_list": [
        [
          "Let's go my Geeeees",
          1625849802.164937
        ]
      ],
      "activity level": 5,
      "influencer": true,
      "hopLayer": 0,
      "profile_pic": null
    },
    {
      "BACnetID": "ed65f4ed9d3f3e30",
      "id": 5,
      "name": "julius",
      "gender": "female",
      "birthday": "1997-01-08",
      "country": "Schweiz",
      "town": "Basel",
      "language": "Englisch",
      "status": null,
      "status_list": [],
      "activity level": 3,
      "influencer": false,
      "hopLayer": 1,
      "profile_pic": null
    },
    {
      "BACnetID": "e94670cfd2d20f8f",
      "id": 6,
      "name": "georgia",
      "gender": "other",
      "birthday": "1995-07-13",
      "country": "Schweiz",
      "town": "Basel",
      "language": "Franzoesisch",
      "status": null,
      "status_list": [],
      "activity level": 1,
      "influencer": false,
      "hopLayer": 3,
      "profile_pic": null
    },
    {
      "BACnetID": "2e250bb80081274e",
      "id": 7,
      "name": "philipp",
      "gender": "male",
      "birthday": "1998-11-26",
      "country": "Schweiz",
      "town": "Luzern",
      "language": "Franzoesisch",
      "status": null,
      "status_list": [],
      "activity level": 3,
      "influencer": true,
      "hopLayer": 1,
      "profile_pic": null
    },
    {
      "BACnetID": "8d5c5ecf5dcd019d",
      "id": 8,
      "name": "henry",
      "gender": "male",
      "birthday": "1998-11-26",
      "country": "Schweiz",
      "town": "Zuerich",
      "language": "Franzoesisch",
      "status": null,
      "status_list": [],
      "activity level": 1,
      "influencer": false,
      "hopLayer": 3,
      "profile_pic": null
    },
    {
      "BACnetID": "7bf5f1bc42ee4550",
      "id": 9,
      "name": "eveline",
      "gender": "other",
      "birthday": "1995-07-13",
      "country": "Schweiz",
      "town": "Zuerich",
      "language": "Deutsch",
      "status": null,
      "status_list": [],
      "activity level": 1,
      "influencer": false,
      "hopLayer": 10000,
      "profile_pic": null
    },
    {
      "BACnetID": "21d7475e0fda97c5",
      "id": 10,
      "name": "david",
      "gender": "female",
      "birthday": "1997-01-08",
      "country": "Schweiz",
      "town": "Bern",
      "language": "Franzoesisch",
      "status": null,
      "status_list": [],
      "activity level": 1,
      "influencer": false,
      "hopLayer": 2,
      "profile_pic": null
    },
    {
      "BACnetID": "7dfe7b7f7988963f",
      "id": 11,
      "name": "ben",
      "gender": "male",
      "birthday": "1997-01-08",
      "country": "Schweiz",
      "town": "Bern",
      "language": "Franzoesisch",
      "status": null,
      "status_list": [],
      "activity level": 4,
      "influencer": false,
      "hopLayer": 1,
      "profile_pic": null
    },
    {
      "BACnetID": "b0c5ecc2f89f1e04",
      "id": 12,
      "name": "yasmin",
      "gender": "male",
      "birthday": "1999-06-01",
      "country": "Schweiz",
      "town": "Basel",
      "language": "Deutsch",
      "status": null,
      "status_list": [],
      "activity level": 3,
      "influencer": true,
      "hopLayer": 1,
      "profile_pic": null
    },
    {
      "BACnetID": "80e58813468f424d",
      "id": 13,
      "name": "esther",
      "gender": "female",
      "birthday": "1999-06-01",
      "country": "Schweiz",
      "town": "Bern",
      "language": "Deutsch",
      "status": null,
      "status_list": [],
      "activity level": 3,
      "influencer": true,
      "hopLayer": 1,
      "profile_pic": null
    },
    {
      "BACnetID": "69b7b83a3203c1ef",
      "id": 14,
      "name": "sebastian",
      "gender": "female",
      "birthday": "1995-07-13",
      "country": "Schweiz",
      "town": "Zuerich",
      "language": "Deutsch",
      "status": null,
      "status_list": [],
      "activity level": 3,
      "influencer": true,
      "hopLayer": 1,
      "profile_pic": null
    },
    {
      "BACnetID": "dda99b8991f886a1",
      "id": 15,
      "name": "isabelle",
      "gender": "male",
      "birthday": "1997-01-08",
      "country": "Schweiz",
      "town": "Bern",
      "language": "Franzoesisch",
      "status": null,
      "status_list": [],
      "activity level": 1,
      "influencer": false,
      "hopLayer": 10000,
      "profile_pic": null
    },
    {
      "BACnetID": "f9905fa379fc4a4c",
      "id": 16,
      "name": "fitzgerald",
      "gender": "male",
      "birthday": "1997-01-08",
      "country": "Schweiz",
      "town": "Basel",
      "language": "Deutsch",
      "status": null,
      "status_list": [],
      "activity level": 1,
      "influencer": false,
      "hopLayer": 10000,
      "profile_pic": null
    }
  ],
  "links": [
    {
      "source": 0,
      "target": 14
    },
    {
      "source": 0,
      "target": 7
    },
    {
      "source": 2,
      "target": 12
    },
    {
      "source": 2,
      "target": 6
    },
    {
      "source": 2,
      "target": 8
    },
    {
      "source": 4,
      "target": 13
    },
    {
      "source": 4,
      "target": 0
    },
    {
      "source": 4,
      "target": 7
    },
    {
      "source": 4,
      "target": 5
    },
    {
      "source": 4,
      "target": 11
    },
    {
      "source": 4,
      "target": 12
    },
    {
      "source": 4,
      "target": 14
    },
    {
      "source": 5,
      "target": 2
    },
    {
      "source": 5,
      "target": 11
    },
    {
      "source": 7,
      "target": 14
    },
    {
      "source": 7,
      "target": 0
    },
    {
      "source": 11,
      "target": 2
    },
    {
      "source": 11,
      "target": 4
    },
    {
      "source": 11,
      "target": 13
    },
    {
      "source": 11,
      "target": 12
    },
    {
      "source": 12,
      "target": 4
    },
    {
      "source": 12,
      "target": 13
    },
    {
      "source": 12,
      "target": 5
    },
    {
      "source": 13,
      "target": 12
    },
    {
      "source": 13,
      "target": 4
    },
    {
      "source": 13,
      "target": 10
    },
    {
      "source": 14,
      "target": 7
    },
    {
      "source": 14,
      "target": 0
    }
  ]
}